====SEED 3====
Error using edu.stanford.covert.cell.sim.process.Replication/evolveState (line 584)
Replisome state out of sync
- 2coreBetaClampGammaComplexPrimase 0
- coreBetaClampGammaComplex 2
- coreBetaClampPrimase 1
- helicase 2

Error in edu.stanford.covert.cell.sim.Simulation/evolveState (line 70)



Error in edu.stanford.covert.cell.sim.Simulation/run (line 85)



Error in simulateHighthroughputExperiments (line 185)



Replication:error
====SEED 5====
====SEED 6====
====SEED 7====
====SEED 4====
====SEED 1====
====SEED 2====
====SEED 0====
====AVERAGE====
