"V1","V2","V3"
0.994033531953269,0.971639299170287,1
21.2090163408629,1,1.1168308520592
0.993651926734973,0.569440275016002,0.527239458266898
0.994013169728587,0.475748451631607,0.201605113259271
4.43226320172041,1,0.404184340491725
0.994781190323194,1,0.0902591396709418
0.995632245673103,1,0.0774566449914353
0.997487748753284,1,0.528340746589751
1.93337848586383,1,1.90682961777582
0.995333791488562,1,0.0656435865240846
